agent0,agent1,agent2
2,2,2
1,2:0,2:0,1
x0y1,x1y1,NOOP:x1y1,x2y1,NOOP:x0y1,x1y1,x2y1,NOOP
0.3333333333333333
0.3333333333333333
0.3333333333333333
0.7458005189602586
0.25419948103974144
0.0
0.0
0.7522140993848829
0.24778590061511704
0.3333333333333333
0.3333333333333333
0.3333333333333333
0.7477968807156397
0.25220311928436034
0.0
0.0
0.7524156502455251
0.2475843497544749
0.4963567567567568
0.0
0.5036432432432433
0.0
1.0
0.0
0.0
0.0
1.0
0.3333333333333333
0.3333333333333333
0.3333333333333333
0.750520749879827
0.24947925012017308
0.0
0.0
0.7504659765434576
0.24953402345654233
0.3333333333333333
0.3333333333333333
0.3333333333333333
0.7534951068504094
0.24650489314959054
0.0
0.0
0.7459850712508482
0.25401492874915177
0.3333333333333333
0.3333333333333333
0.3333333333333333
0.7479927830401444
0.2520072169598557
0.0
0.0
0.7550910016545757
0.24490899834542448
0.4980574162679426
0.0
0.5019425837320575
0.0
1.0
0.0
0.0
0.0
1.0
0.3333333333333333
0.3333333333333333
0.3333333333333333
0.7498799985230588
0.25012000147694124
0.0
0.0
0.74886984496769
0.25113015503230995
0.3333333333333333
0.3333333333333333
0.3333333333333333
0.748246159310896
0.25175384068910395
0.0
0.0
0.7492879358323785
0.25071206416762154
0.5009022556390977
0.0
0.4990977443609022
0.0
1.0
0.0
0.0
0.0
1.0
0.3333333333333333
0.3333333333333333
0.3333333333333333
0.750520749879827
0.24947925012017308
0.0
0.0
0.7504659765434576
0.24953402345654233
0.3333333333333333
0.3333333333333333
0.3333333333333333
0.7534951068504094
0.24650489314959054
0.0
0.0
0.7459850712508482
0.25401492874915177
0.3333333333333333
0.3333333333333333
0.3333333333333333
0.7479927830401444
0.2520072169598557
0.0
0.0
0.7550910016545757
0.24490899834542448
0.4980574162679426
0.0
0.5019425837320575
0.0
1.0
0.0
0.0
0.0
1.0
0.3333333333333333
0.3333333333333333
0.3333333333333333
0.7498799985230588
0.25012000147694124
0.0
0.0
0.74886984496769
0.25113015503230995
0.3333333333333333
0.3333333333333333
0.3333333333333333
0.748246159310896
0.25175384068910395
0.0
0.0
0.7492879358323785
0.25071206416762154
0.5009022556390977
0.0
0.4990977443609022
0.0
1.0
0.0
0.0
0.0
1.0
0.3333333333333333
0.3333333333333333
0.3333333333333333
0.7458005189602586
0.25419948103974144
0.0
0.0
0.7522140993848829
0.24778590061511704
0.3333333333333333
0.3333333333333333
0.3333333333333333
0.7477968807156397
0.25220311928436034
0.0
0.0
0.7524156502455251
0.2475843497544749
0.4963567567567568
0.0
0.5036432432432433
0.0
1.0
0.0
0.0
0.0
1.0
