Running Trials: 
Trial : 0 1 2 3 4 5 6 7 8 9 10 11 12 13 14 15 16 17 18 19 20 21 22 23 24 25 26 27 28 29

Finished running 30 trials..Cumulative Results:
Agent 0 
Neighbor 1 
Neighbor 2 
Agent 1 
Neighbor 0 
Neighbor 2 
Agent 2 
Neighbor 0 
Neighbor 1 
Agent 0 
Neighbor 1 
Neighbor 2 
Agent 1 
Neighbor 0 
Neighbor 2 
Agent 2 
Neighbor 0 
Neighbor 1 
-------------Parsed Agent Transition Function--------------
Agent 0 
Neighbor 1 
 x1y1 x2y1 NOOP
x1y1
-------------------
 0.3333333333333333 0.3333333333333333 0.3333333333333333 Total: 1.0
 0.7458005189602586 0.25419948103974144 0.0 Total: 1.0
 0.0 0.7522140993848829 0.24778590061511704 Total: 1.0
-------------------
x2y1
-------------------
 0.3333333333333333 0.3333333333333333 0.3333333333333333 Total: 1.0
 0.7477968807156397 0.25220311928436034 0.0 Total: 1.0
 0.0 0.7524156502455251 0.2475843497544749 Total: 1.0
-------------------
NOOP
-------------------
 0.4963567567567568 0.0 0.5036432432432433 Total: 1.0
 0.0 1.0 0.0 Total: 1.0
 0.0 0.0 1.0 Total: 1.0
-------------------
Neighbor 2 
 x0y1 x1y1 x2y1 NOOP
x0y1
-------------------
 0.3333333333333333 0.3333333333333333 0.3333333333333333 Total: 1.0
 0.750520749879827 0.24947925012017308 0.0 Total: 1.0
 0.0 0.7504659765434576 0.24953402345654233 Total: 0.9999999999999999
-------------------
x1y1
-------------------
 0.3333333333333333 0.3333333333333333 0.3333333333333333 Total: 1.0
 0.7534951068504094 0.24650489314959054 0.0 Total: 1.0
 0.0 0.7459850712508482 0.25401492874915177 Total: 1.0
-------------------
x2y1
-------------------
 0.3333333333333333 0.3333333333333333 0.3333333333333333 Total: 1.0
 0.7479927830401444 0.2520072169598557 0.0 Total: 1.0
 0.0 0.7550910016545757 0.24490899834542448 Total: 1.0000000000000002
-------------------
NOOP
-------------------
 0.4980574162679426 0.0 0.5019425837320575 Total: 1.0
 0.0 1.0 0.0 Total: 1.0
 0.0 0.0 1.0 Total: 1.0
-------------------
Agent 1 
Neighbor 0 
 x0y1 x1y1 NOOP
x0y1
-------------------
 0.3333333333333333 0.3333333333333333 0.3333333333333333 Total: 1.0
 0.7498799985230588 0.25012000147694124 0.0 Total: 1.0
 0.0 0.74886984496769 0.25113015503230995 Total: 1.0
-------------------
x1y1
-------------------
 0.3333333333333333 0.3333333333333333 0.3333333333333333 Total: 1.0
 0.748246159310896 0.25175384068910395 0.0 Total: 1.0
 0.0 0.7492879358323785 0.25071206416762154 Total: 1.0
-------------------
NOOP
-------------------
 0.5009022556390977 0.0 0.4990977443609022 Total: 1.0
 0.0 1.0 0.0 Total: 1.0
 0.0 0.0 1.0 Total: 1.0
-------------------
Neighbor 2 
 x0y1 x1y1 x2y1 NOOP
x0y1
-------------------
 0.3333333333333333 0.3333333333333333 0.3333333333333333 Total: 1.0
 0.750520749879827 0.24947925012017308 0.0 Total: 1.0
 0.0 0.7504659765434576 0.24953402345654233 Total: 0.9999999999999999
-------------------
x1y1
-------------------
 0.3333333333333333 0.3333333333333333 0.3333333333333333 Total: 1.0
 0.7534951068504094 0.24650489314959054 0.0 Total: 1.0
 0.0 0.7459850712508482 0.25401492874915177 Total: 1.0
-------------------
x2y1
-------------------
 0.3333333333333333 0.3333333333333333 0.3333333333333333 Total: 1.0
 0.7479927830401444 0.2520072169598557 0.0 Total: 1.0
 0.0 0.7550910016545757 0.24490899834542448 Total: 1.0000000000000002
-------------------
NOOP
-------------------
 0.4980574162679426 0.0 0.5019425837320575 Total: 1.0
 0.0 1.0 0.0 Total: 1.0
 0.0 0.0 1.0 Total: 1.0
-------------------
Agent 2 
Neighbor 0 
 x0y1 x1y1 NOOP
x0y1
-------------------
 0.3333333333333333 0.3333333333333333 0.3333333333333333 Total: 1.0
 0.7498799985230588 0.25012000147694124 0.0 Total: 1.0
 0.0 0.74886984496769 0.25113015503230995 Total: 1.0
-------------------
x1y1
-------------------
 0.3333333333333333 0.3333333333333333 0.3333333333333333 Total: 1.0
 0.748246159310896 0.25175384068910395 0.0 Total: 1.0
 0.0 0.7492879358323785 0.25071206416762154 Total: 1.0
-------------------
NOOP
-------------------
 0.5009022556390977 0.0 0.4990977443609022 Total: 1.0
 0.0 1.0 0.0 Total: 1.0
 0.0 0.0 1.0 Total: 1.0
-------------------
Neighbor 1 
 x1y1 x2y1 NOOP
x1y1
-------------------
 0.3333333333333333 0.3333333333333333 0.3333333333333333 Total: 1.0
 0.7458005189602586 0.25419948103974144 0.0 Total: 1.0
 0.0 0.7522140993848829 0.24778590061511704 Total: 1.0
-------------------
x2y1
-------------------
 0.3333333333333333 0.3333333333333333 0.3333333333333333 Total: 1.0
 0.7477968807156397 0.25220311928436034 0.0 Total: 1.0
 0.0 0.7524156502455251 0.2475843497544749 Total: 1.0
-------------------
NOOP
-------------------
 0.4963567567567568 0.0 0.5036432432432433 Total: 1.0
 0.0 1.0 0.0 Total: 1.0
 0.0 0.0 1.0 Total: 1.0
-------------------
---------------------------------------------------
[TIMING RESULTS] Performed total 30 trials..in 1223.087s 
[TIMING RESULTS] Avg time/trial = 40.76956666666666
---------------------------------------------------
